{
  "results": [
    {
      "popularity": 3778.011,
      "vote_count": 60,
      "video": false,
      "poster_path": "/h8Rb9gBr48ODIwYUttZNYeMWeUU.jpg",
      "id": 635302,
      "adult": false,
      "backdrop_path": "/xoqr4dMbRJnzuhsWDF3XNHQwJ9x.jpg",
      "original_language": "ja",
      "original_title": "劇場版「鬼滅の刃」無限列車編",
      "genre_ids": [
        16,
        28,
        36,
        12,
        14,
        18
      ],
      "title": "Demon Slayer: Kimetsu no Yaiba - The Movie: Mugen Train",
      "vote_average": 6.3,
      "overview": "Tanjirō Kamado, joined with Inosuke Hashibira, a boy raised by boars who wears a boar's head, and Zenitsu Agatsuma, a scared boy who reveals his true power when he sleeps, boards the Infinity Train on a new mission with the Fire Hashira, Kyōjurō Rengoku, to defeat a demon who has been tormenting the people and killing the demon slayers who oppose it!",
      "release_date": "2020-10-16"
    },
    {
      "popularity": 2403.297,
      "vote_count": 569,
      "video": false,
      "poster_path": "/betExZlgK0l7CZ9CsCBVcwO1OjL.jpg",
      "id": 531219,
      "adult": false,
      "backdrop_path": "/8rIoyM6zYXJNjzGseT3MRusMPWl.jpg",
      "original_language": "en",
      "original_title": "Roald Dahl's The Witches",
      "genre_ids": [
        14,
        10751,
        12,
        35,
        27
      ],
      "title": "Roald Dahl's The Witches",
      "vote_average": 7.1,
      "overview": "In late 1967, a young orphaned boy goes to live with his loving grandma in the rural Alabama town of Demopolis. As the boy and his grandmother encounter some deceptively glamorous but thoroughly diabolical witches, she wisely whisks him away to a seaside resort. Regrettably, they arrive at precisely the same time that the world's Grand High Witch has gathered.",
      "release_date": "2020-10-26"
    },
    {
      "popularity": 2303.555,
      "vote_count": 105,
      "video": false,
      "poster_path": "/ugZW8ocsrfgI95pnQ7wrmKDxIe.jpg",
      "id": 724989,
      "adult": false,
      "backdrop_path": "/86L8wqGMDbwURPni2t7FQ0nDjsH.jpg",
      "original_language": "en",
      "original_title": "Hard Kill",
      "genre_ids": [
        28,
        53
      ],
      "title": "Hard Kill",
      "vote_average": 4.8,
      "overview": "The work of billionaire tech CEO Donovan Chalmers is so valuable that he hires mercenaries to protect it, and a terrorist group kidnaps his daughter just to get it.",
      "release_date": "2020-10-23"
    },
    {
      "popularity": 1832.827,
      "vote_count": 280,
      "video": false,
      "poster_path": "/7D430eqZj8y3oVkLFfsWXGRcpEG.jpg",
      "id": 528085,
      "adult": false,
      "backdrop_path": "/5UkzNSOK561c2QRy2Zr4AkADzLT.jpg",
      "original_language": "en",
      "original_title": "2067",
      "genre_ids": [
        878,
        53,
        18
      ],
      "title": "2067",
      "vote_average": 5,
      "overview": "A lowly utility worker is called to the future by a mysterious radio signal, he must leave his dying wife to embark on a journey that will force him to face his deepest fears in an attempt to change the fabric of reality and save humankind from its greatest environmental crisis yet.",
      "release_date": "2020-10-01"
    },
    {
      "popularity": 1414.57,
      "vote_count": 112,
      "video": false,
      "poster_path": "/zfdhsR3Y3xw42OHrMpi0oBw0Uk8.jpg",
      "id": 741074,
      "adult": false,
      "backdrop_path": "/DA7gzvlBoxMNL0XmGgTZOyv67P.jpg",
      "original_language": "en",
      "original_title": "Once Upon a Snowman",
      "genre_ids": [
        16,
        10751,
        35,
        14
      ],
      "title": "Once Upon a Snowman",
      "vote_average": 7.5,
      "overview": "The previously untold origins of Olaf, the innocent and insightful, summer-loving snowman are revealed as we follow Olaf’s first steps as he comes to life and searches for his identity in the snowy mountains outside Arendelle.",
      "release_date": "2020-10-23"
    },
    {
      "popularity": 1163.879,
      "vote_count": 332,
      "video": false,
      "poster_path": "/lQfdytwN7eh0tXWjIiMceFdBBvD.jpg",
      "id": 560050,
      "adult": false,
      "backdrop_path": "/htBUhLSS7FfHtydgYxUWjL3J1Q1.jpg",
      "original_language": "en",
      "original_title": "Over the Moon",
      "genre_ids": [
        16,
        12,
        10751,
        14
      ],
      "title": "Over the Moon",
      "vote_average": 7.7,
      "overview": "A girl builds a rocket to travel to the moon in hopes of meeting the legendary Moon Goddess.",
      "release_date": "2020-10-16"
    },
    {
      "popularity": 921.649,
      "vote_count": 723,
      "video": false,
      "poster_path": "/sy6DvAu72kjoseZEjocnm2ZZ09i.jpg",
      "id": 581392,
      "adult": false,
      "backdrop_path": "/2nFzxaAK7JIsk6l7qZ8rFBsa3yW.jpg",
      "original_language": "ko",
      "original_title": "반도",
      "genre_ids": [
        28,
        27,
        53
      ],
      "title": "Peninsula",
      "vote_average": 7,
      "overview": "A soldier and his team battle hordes of post-apocalyptic zombies in the wastelands of the Korean Peninsula.",
      "release_date": "2020-07-15"
    },
    {
      "popularity": 848.009,
      "vote_count": 173,
      "video": false,
      "poster_path": "/6CoRTJTmijhBLJTUNoVSUNxZMEI.jpg",
      "id": 694919,
      "adult": false,
      "backdrop_path": "/pq0JSpwyT2URytdFG0euztQPAyR.jpg",
      "original_language": "en",
      "original_title": "Money Plane",
      "genre_ids": [
        28
      ],
      "title": "Money Plane",
      "vote_average": 5.9,
      "overview": "A professional thief with $40 million in debt and his family's life on the line must commit one final heist - rob a futuristic airborne casino filled with the world's most dangerous criminals.",
      "release_date": "2020-09-29"
    },
    {
      "popularity": 811.516,
      "vote_count": 591,
      "video": false,
      "poster_path": "/qzA87Wf4jo1h8JMk9GilyIYvwsA.jpg",
      "id": 539885,
      "adult": false,
      "backdrop_path": "/54yOImQgj8i85u9hxxnaIQBRUuo.jpg",
      "original_language": "en",
      "original_title": "Ava",
      "genre_ids": [
        28,
        80,
        18,
        53
      ],
      "title": "Ava",
      "vote_average": 5.7,
      "overview": "A black ops assassin is forced to fight for her own survival after a job goes dangerously wrong.",
      "release_date": "2020-07-02"
    },
    {
      "popularity": 626.221,
      "vote_count": 343,
      "video": false,
      "poster_path": "/uOw5JD8IlD546feZ6oxbIjvN66P.jpg",
      "id": 718444,
      "adult": false,
      "backdrop_path": "/x4UkhIQuHIJyeeOTdcbZ3t3gBSa.jpg",
      "original_language": "en",
      "original_title": "Rogue",
      "genre_ids": [
        28,
        12,
        18,
        53
      ],
      "title": "Rogue",
      "vote_average": 5.8,
      "overview": "Battle-hardened O’Hara leads a lively mercenary team of soldiers on a daring mission: rescue hostages from their captors in remote Africa. But as the mission goes awry and the team is stranded, O’Hara’s squad must face a bloody, brutal encounter with a gang of rebels.",
      "release_date": "2020-08-20"
    },
    {
      "popularity": 609.644,
      "vote_count": 32,
      "video": false,
      "poster_path": "/oAuBztpKuTIHb8nLl6miXIy0Sj9.jpg",
      "id": 499338,
      "adult": false,
      "backdrop_path": "/AuZgtWv4ZRhqD8u9JJMxTQbhz9q.jpg",
      "original_language": "en",
      "original_title": "I Believe",
      "genre_ids": [
        10751
      ],
      "title": "I Believe",
      "vote_average": 6.5,
      "overview": "A 9 year old boy experiences God's power in a supernatural way.",
      "release_date": "2017-11-07"
    },
    {
      "popularity": 591.147,
      "vote_count": 126,
      "video": false,
      "poster_path": "/9HT9982bzgN5on1sLRmc1GMn6ZC.jpg",
      "id": 671039,
      "adult": false,
      "backdrop_path": "/gnf4Cb2rms69QbCnGFJyqwBWsxv.jpg",
      "original_language": "fr",
      "original_title": "Bronx",
      "genre_ids": [
        53,
        28,
        18,
        80
      ],
      "title": "Rogue City",
      "vote_average": 6.4,
      "overview": "Caught in the crosshairs of police corruption and Marseille’s warring gangs, a loyal cop must protect his squad by taking matters into his own hands.",
      "release_date": "2020-10-30"
    },
    {
      "popularity": 587.276,
      "vote_count": 304,
      "video": false,
      "poster_path": "/r4Lm1XKP0VsTgHX4LG4syAwYA2I.jpg",
      "id": 590223,
      "adult": false,
      "backdrop_path": "/lA5fOBqTOQBQ1s9lEYYPmNXoYLi.jpg",
      "original_language": "en",
      "original_title": "Love and Monsters",
      "genre_ids": [
        28,
        12,
        35,
        878
      ],
      "title": "Love and Monsters",
      "vote_average": 7.7,
      "overview": "Seven years after the Monsterpocalypse, Joel Dawson, along with the rest of humanity, has been living underground ever since giant creatures took control of the land. After reconnecting over radio with his high school girlfriend Aimee, who is now 80 miles away at a coastal colony, Joel begins to fall for her again. As Joel realizes that there’s nothing left for him underground, he decides against all logic to venture out to Aimee, despite all the dangerous monsters that stand in his way.",
      "release_date": "2020-10-16"
    },
    {
      "popularity": 492.096,
      "vote_count": 169,
      "video": false,
      "poster_path": "/3eg0kGC2Xh0vhydJHO37Sp4cmMt.jpg",
      "id": 531499,
      "adult": false,
      "backdrop_path": "/zogWnCSztU8xvabaepQnAwsOtOt.jpg",
      "original_language": "en",
      "original_title": "The Tax Collector",
      "genre_ids": [
        28,
        80,
        18
      ],
      "title": "The Tax Collector",
      "vote_average": 6.1,
      "overview": "David Cuevas is a family man who works as a gangland tax collector for high ranking Los Angeles gang members. He makes collections across the city with his partner Creeper making sure people pay up or will see retaliation. An old threat returns to Los Angeles that puts everything David loves in harm’s way.",
      "release_date": "2020-08-07"
    },
    {
      "popularity": 480.108,
      "vote_count": 1579,
      "video": false,
      "poster_path": "/kiX7UYfOpYrMFSAGbI6j1pFkLzQ.jpg",
      "id": 613504,
      "adult": false,
      "backdrop_path": "/6hgItrYQEG33y0I7yP2SRl2ei4w.jpg",
      "original_language": "en",
      "original_title": "After We Collided",
      "genre_ids": [
        10749,
        18
      ],
      "title": "After We Collided",
      "vote_average": 7.4,
      "overview": "Tessa finds herself struggling with her complicated relationship with Hardin; she faces a dilemma that could change their lives forever.",
      "release_date": "2020-09-02"
    },
    {
      "popularity": 432.31,
      "vote_count": 1267,
      "video": false,
      "poster_path": "/7W0G3YECgDAfnuiHG91r8WqgIOe.jpg",
      "id": 446893,
      "adult": false,
      "backdrop_path": "/qsxhnirlp7y4Ae9bd11oYJSX59j.jpg",
      "original_language": "en",
      "original_title": "Trolls World Tour",
      "genre_ids": [
        16,
        10751,
        35,
        14,
        12,
        10402
      ],
      "title": "Trolls World Tour",
      "vote_average": 7.6,
      "overview": "Queen Poppy and Branch make a surprising discovery — there are other Troll worlds beyond their own, and their distinct differences create big clashes between these various tribes. When a mysterious threat puts all of the Trolls across the land in danger, Poppy, Branch, and their band of friends must embark on an epic quest to create harmony among the feuding Trolls to unite them against certain doom.",
      "release_date": "2020-03-12"
    },
    {
      "popularity": 428.919,
      "vote_count": 108,
      "video": false,
      "poster_path": "/ltyARDw2EFXZ2H2ERnlEctXPioP.jpg",
      "id": 425001,
      "adult": false,
      "backdrop_path": "/4gKyQ1McHa8ZKDsYoyKQSevF01J.jpg",
      "original_language": "en",
      "original_title": "The War with Grandpa",
      "genre_ids": [
        35,
        10751,
        18
      ],
      "title": "The War with Grandpa",
      "vote_average": 6,
      "overview": "Sixth-grader Peter is pretty much your average kid—he likes gaming, hanging with his friends and his beloved pair of Air Jordans. But when his recently widowed grandfather Ed moves in with Peter’s family, the boy is forced to give up his most prized possession of all, his bedroom. Unwilling to let such an injustice stand, Peter devises a series of increasingly elaborate pranks to drive out the interloper, but Grandpa Ed won’t go without a fight.",
      "release_date": "2020-08-27"
    },
    {
      "popularity": 405.629,
      "vote_count": 94,
      "video": false,
      "poster_path": "/4BgSWFMW2MJ0dT5metLzsRWO7IJ.jpg",
      "id": 726739,
      "adult": false,
      "backdrop_path": "/t22fWbzdnThPseipsdpwgdPOPCR.jpg",
      "original_language": "en",
      "original_title": "Cats & Dogs 3: Paws Unite",
      "genre_ids": [
        35,
        28
      ],
      "title": "Cats & Dogs 3: Paws Unite",
      "vote_average": 6.5,
      "overview": "It's been ten years since the creation of the Great Truce, an elaborate joint-species surveillance system designed and monitored by cats and dogs to keep the peace when conflicts arise. But when a tech-savvy villain hacks into wireless networks to use frequencies only heard by cats and dogs, he manipulates them into conflict and the worldwide battle between cats and dogs is BACK ON. Now, a team of inexperienced and untested agents will have to use their old-school animal instincts to restore order and peace between cats and dogs everywhere.",
      "release_date": "2020-10-02"
    },
    {
      "popularity": 405.092,
      "vote_count": 45,
      "video": false,
      "poster_path": "/8F9xUvb1JMWUMkFV2Yq3aiueAbq.jpg",
      "id": 595149,
      "adult": false,
      "backdrop_path": "/3GTSbc85Xangv8JkBSsQZMXGyhh.jpg",
      "original_language": "en",
      "original_title": "Death of Me",
      "genre_ids": [
        27
      ],
      "title": "Death of Me",
      "vote_average": 5.6,
      "overview": "A couple on holiday on a remote South Pacific island awaken one morning with a hang over and no recollection of what transpired. When playing back a video of the previous night, they see they participated in a local ritual that somehow ends with him murdering her.",
      "release_date": "2020-10-02"
    },
    {
      "popularity": 396.948,
      "vote_count": 90,
      "video": false,
      "poster_path": "/n9OzZmPMnVrV0cMQ7amX0DtBkQH.jpg",
      "id": 509635,
      "adult": false,
      "backdrop_path": "/obExOU9qDnMcxvWPumoD14oxup5.jpg",
      "original_language": "en",
      "original_title": "Alone",
      "genre_ids": [
        53
      ],
      "title": "Alone",
      "vote_average": 6.3,
      "overview": "A recently widowed traveler is kidnapped by a cold blooded killer, only to escape into the wilderness where she is forced to battle against the elements as her pursuer closes in on her.",
      "release_date": "2020-09-10"
    }
  ],
  "page": 1,
  "total_results": 1560,
  "dates": {
    "maximum": "2020-11-07",
    "minimum": "2020-09-20"
  },
  "total_pages": 78
}
